{
  "version": 2,
  "exports": {
    "EnTranslatorPlugin/1.0.0": {
      "type": "project",
      "framework": ".NETFramework,Version=v4.6.1",
      "compile": {
        "bin/Debug/EnTranslatorPlugin.dll": {}
      },
      "runtime": {
        "bin/Debug/EnTranslatorPlugin.dll": {}
      },
      "contentFiles": {
        "bin/Debug/EnTranslatorPlugin.pdb": {
          "buildAction": "None",
          "codeLanguage": "any",
          "copyToOutput": true
        }
      }
    },
    "Translator.Core/1.0.0": {
      "type": "project",
      "framework": ".NETFramework,Version=v4.6.1",
      "compile": {
        "bin/Debug/Translator.Core.dll": {}
      },
      "runtime": {
        "bin/Debug/Translator.Core.dll": {}
      },
      "contentFiles": {
        "bin/Debug/Translator.Core.pdb": {
          "buildAction": "None",
          "codeLanguage": "any",
          "copyToOutput": true
        }
      }
    },
    "Translator.PluginContracts/1.0.0": {
      "type": "project",
      "framework": ".NETFramework,Version=v4.6.1",
      "compile": {
        "bin/Debug/Translator.PluginContracts.dll": {}
      },
      "runtime": {
        "bin/Debug/Translator.PluginContracts.dll": {}
      },
      "contentFiles": {
        "bin/Debug/Translator.PluginContracts.pdb": {
          "buildAction": "None",
          "codeLanguage": "any",
          "copyToOutput": true
        }
      }
    }
  }
}